[ {
  "buildOrder" : 22,
  "reportUrl" : "http://192.168.101.51:8110/job/jyhk/22/allure",
  "reportName" : "AllureReport",
  "data" : { }
}, {
  "buildOrder" : 21,
  "reportUrl" : "http://192.168.101.51:8110/job/jyhk/21/allure",
  "reportName" : "AllureReport",
  "data" : { }
}, {
  "buildOrder" : 20,
  "reportUrl" : "http://192.168.101.51:8110/job/jyhk/20/allure",
  "reportName" : "AllureReport",
  "data" : { }
}, {
  "buildOrder" : 19,
  "reportUrl" : "http://localhost:8110/job/jyhk/19/allure",
  "reportName" : "AllureReport",
  "data" : { }
}, {
  "buildOrder" : 18,
  "reportUrl" : "http://localhost:8110/job/jyhk/18/allure",
  "reportName" : "AllureReport",
  "data" : {
    "Test defects" : 1
  }
}, {
  "buildOrder" : 17,
  "reportUrl" : "http://localhost:8110/job/jyhk/17/allure",
  "reportName" : "AllureReport",
  "data" : {
    "Test defects" : 1
  }
}, {
  "buildOrder" : 16,
  "reportUrl" : "http://localhost:8110/job/jyhk/16/allure",
  "reportName" : "AllureReport",
  "data" : { }
}, {
  "buildOrder" : 15,
  "reportUrl" : "http://localhost:8110/job/jyhk/15/allure",
  "reportName" : "AllureReport",
  "data" : {
    "Test defects" : 1
  }
}, {
  "buildOrder" : 14,
  "reportUrl" : "http://localhost:8110/job/jyhk/14/allure",
  "reportName" : "AllureReport",
  "data" : {
    "Test defects" : 3
  }
}, {
  "buildOrder" : 13,
  "reportUrl" : "http://localhost:8110/job/jyhk/13/allure",
  "reportName" : "AllureReport",
  "data" : {
    "Test defects" : 1
  }
}, {
  "buildOrder" : 12,
  "reportUrl" : "http://localhost:8110/job/jyhk/12/allure",
  "reportName" : "AllureReport",
  "data" : {
    "Test defects" : 2
  }
}, {
  "buildOrder" : 11,
  "reportUrl" : "http://localhost:8110/job/jyhk/11/allure",
  "reportName" : "AllureReport",
  "data" : {
    "Test defects" : 1
  }
}, {
  "buildOrder" : 10,
  "reportUrl" : "http://localhost:8110/job/jyhk/10/allure",
  "reportName" : "AllureReport",
  "data" : {
    "Test defects" : 1
  }
}, {
  "buildOrder" : 9,
  "reportUrl" : "http://localhost:8110/job/jyhk/9/allure",
  "reportName" : "AllureReport",
  "data" : {
    "Product defects" : 1
  }
}, {
  "buildOrder" : 8,
  "reportUrl" : "http://localhost:8110/job/jyhk/8/allure",
  "reportName" : "AllureReport",
  "data" : {
    "Test defects" : 1
  }
}, {
  "buildOrder" : 7,
  "reportUrl" : "http://localhost:8110/job/jyhk/7/allure",
  "reportName" : "AllureReport",
  "data" : {
    "Test defects" : 1
  }
}, {
  "buildOrder" : 6,
  "reportUrl" : "http://localhost:8110/job/jyhk/6/allure",
  "reportName" : "AllureReport",
  "data" : {
    "Test defects" : 17
  }
}, {
  "buildOrder" : 5,
  "reportUrl" : "http://localhost:8110/job/jyhk/5/allure",
  "reportName" : "AllureReport",
  "data" : {
    "Test defects" : 17
  }
}, {
  "buildOrder" : 4,
  "reportUrl" : "http://localhost:8110/job/jyhk/4/allure",
  "reportName" : "AllureReport",
  "data" : {
    "Test defects" : 4
  }
}, {
  "buildOrder" : 3,
  "reportUrl" : "http://localhost:8110/job/jyhk/3/allure",
  "reportName" : "AllureReport",
  "data" : {
    "Test defects" : 4
  }
} ]